
Date - 23 Aug 2019 10:24:03
Level - ERROR
UserAgent - Mozilla/5.0 (Windows NT 10.0; Win64; x64) AppleWebKit/537.36 (KHTML, like Gecko) Chrome/76.0.3809.100 Safari/537.36
Message - 
Method LogRequestResponseDetails -URL - http://localhost:44762/users/getbyusername
Req-Headers - 
Request Header Details - Key - Content-Type, Value- application/json
Key - Znode-DomainName, Value- localhost:3288
Key - Znode-PublishState, Value- 
Key - Znode-Locale, Value- 
Key - Znode-ProfileId, Value- 
Key - Host, Value- localhost:44762
Key - Content-Length, Value- 1928
Key - Expect, Value- 100-continue
Key - Connection, Value- Close
Key - User-Agent, Value- Mozilla/5.0 (Windows NT 10.0; Win64; x64) AppleWebKit/537.36 (KHTML, like Gecko) Chrome/76.0.3809.100 Safari/537.36
Response Status - 0
Error Message - The remote server returned an error: (500) Internal Server Error.

User Referrer: localhost:3288

Browser Name: Chrome

UserId: 

File Path: D:\Jenkins-Znode\workspace\Znode-NuGet-Project-Build\Projects\Engines\Znode.Engine.Api.Client\Clients\Clients\Shared\BaseClient.cs

Method Name: LogRequestResponseDetails

Line Number: 599

Logger: BaseClient.cs



Date - 23 Aug 2019 10:24:11
Level - ERROR
UserAgent - Mozilla/5.0 (Windows NT 10.0; Win64; x64) AppleWebKit/537.36 (KHTML, like Gecko) Chrome/76.0.3809.100 Safari/537.36
Message - 
Method LogRequestResponseDetails -URL - http://localhost:44762/users/getbyusername
Req-Headers - 
Request Header Details - Key - Content-Type, Value- application/json
Key - Znode-DomainName, Value- localhost:3288
Key - Znode-PublishState, Value- 
Key - Znode-Locale, Value- 
Key - Znode-ProfileId, Value- 
Key - Host, Value- localhost:44762
Key - Content-Length, Value- 1928
Key - Expect, Value- 100-continue
Key - Connection, Value- Close
Key - User-Agent, Value- Mozilla/5.0 (Windows NT 10.0; Win64; x64) AppleWebKit/537.36 (KHTML, like Gecko) Chrome/76.0.3809.100 Safari/537.36
Response Status - 0
Error Message - The remote server returned an error: (500) Internal Server Error.

User Referrer: localhost:3288

Browser Name: Chrome

UserId: 

File Path: D:\Jenkins-Znode\workspace\Znode-NuGet-Project-Build\Projects\Engines\Znode.Engine.Api.Client\Clients\Clients\Shared\BaseClient.cs

Method Name: LogRequestResponseDetails

Line Number: 599

Logger: BaseClient.cs



Date - 23 Aug 2019 10:27:06
Level - ERROR
UserAgent - Mozilla/5.0 (Windows NT 10.0; Win64; x64) AppleWebKit/537.36 (KHTML, like Gecko) Chrome/76.0.3809.100 Safari/537.36
Message - 
Method LogRequestResponseDetails -URL - http://localhost:44762/search/getkeywordsearchsuggestion?expand=Categories&filter=ZnodeCatalogId~eq~7,LocaleId~eq~1,PortalId~eq~1,IsActive~eq~true&sort=&page=index~0,size~ 0&publishState=PRODUCTION
Req-Headers - 
Request Header Details - Key - Content-Type, Value- application/json
Key - Znode-UserId, Value- 2
Key - Znode-DomainName, Value- localhost:3288
Key - Znode-PublishState, Value- PRODUCTION
Key - Znode-Locale, Value- 1
Key - Znode-ProfileId, Value- 
Key - Host, Value- localhost:44762
Key - Content-Length, Value- 935
Key - Expect, Value- 100-continue
Key - Connection, Value- Close
Key - User-Agent, Value- Mozilla/5.0 (Windows NT 10.0; Win64; x64) AppleWebKit/537.36 (KHTML, like Gecko) Chrome/76.0.3809.100 Safari/537.36
Response Status - 0
Error Message - The remote server returned an error: (500) Internal Server Error.

User Referrer: localhost:3288

Browser Name: Chrome

UserId: 

File Path: D:\Jenkins-Znode\workspace\Znode-NuGet-Project-Build\Projects\Engines\Znode.Engine.Api.Client\Clients\Clients\Shared\BaseClient.cs

Method Name: LogRequestResponseDetails

Line Number: 599

Logger: BaseClient.cs



Date - 23 Aug 2019 10:27:07
Level - ERROR
UserAgent - Mozilla/5.0 (Windows NT 10.0; Win64; x64) AppleWebKit/537.36 (KHTML, like Gecko) Chrome/76.0.3809.100 Safari/537.36
Message - 
Method LogRequestResponseDetails -URL - http://localhost:44762/search/getkeywordsearchsuggestion?expand=Categories&filter=ZnodeCatalogId~eq~7,LocaleId~eq~1,PortalId~eq~1,IsActive~eq~true&sort=&page=index~0,size~ 0&publishState=PRODUCTION
Req-Headers - 
Request Header Details - Key - Content-Type, Value- application/json
Key - Znode-UserId, Value- 2
Key - Znode-DomainName, Value- localhost:3288
Key - Znode-PublishState, Value- PRODUCTION
Key - Znode-Locale, Value- 1
Key - Znode-ProfileId, Value- 
Key - Host, Value- localhost:44762
Key - Content-Length, Value- 937
Key - Expect, Value- 100-continue
Key - Connection, Value- Close
Key - User-Agent, Value- Mozilla/5.0 (Windows NT 10.0; Win64; x64) AppleWebKit/537.36 (KHTML, like Gecko) Chrome/76.0.3809.100 Safari/537.36
Response Status - 0
Error Message - The remote server returned an error: (500) Internal Server Error.

User Referrer: localhost:3288

Browser Name: Chrome

UserId: 

File Path: D:\Jenkins-Znode\workspace\Znode-NuGet-Project-Build\Projects\Engines\Znode.Engine.Api.Client\Clients\Clients\Shared\BaseClient.cs

Method Name: LogRequestResponseDetails

Line Number: 599

Logger: BaseClient.cs



Date - 23 Aug 2019 10:27:09
Level - ERROR
UserAgent - Mozilla/5.0 (Windows NT 10.0; Win64; x64) AppleWebKit/537.36 (KHTML, like Gecko) Chrome/76.0.3809.100 Safari/537.36
Message - 
Method LogRequestResponseDetails -URL - http://localhost:44762/search/getkeywordsearchsuggestion?expand=Categories&filter=ZnodeCatalogId~eq~7,LocaleId~eq~1,PortalId~eq~1,IsActive~eq~true&sort=&page=index~0,size~ 0&publishState=PRODUCTION
Req-Headers - 
Request Header Details - Key - Content-Type, Value- application/json
Key - Znode-UserId, Value- 2
Key - Znode-DomainName, Value- localhost:3288
Key - Znode-PublishState, Value- PRODUCTION
Key - Znode-Locale, Value- 1
Key - Znode-ProfileId, Value- 
Key - Host, Value- localhost:44762
Key - Content-Length, Value- 943
Key - Expect, Value- 100-continue
Key - Connection, Value- Close
Key - User-Agent, Value- Mozilla/5.0 (Windows NT 10.0; Win64; x64) AppleWebKit/537.36 (KHTML, like Gecko) Chrome/76.0.3809.100 Safari/537.36
Response Status - 0
Error Message - The remote server returned an error: (500) Internal Server Error.

User Referrer: localhost:3288

Browser Name: Chrome

UserId: 

File Path: D:\Jenkins-Znode\workspace\Znode-NuGet-Project-Build\Projects\Engines\Znode.Engine.Api.Client\Clients\Clients\Shared\BaseClient.cs

Method Name: LogRequestResponseDetails

Line Number: 599

Logger: BaseClient.cs



Date - 23 Aug 2019 10:27:09
Level - ERROR
UserAgent - Mozilla/5.0 (Windows NT 10.0; Win64; x64) AppleWebKit/537.36 (KHTML, like Gecko) Chrome/76.0.3809.100 Safari/537.36
Message - 
Method LogRequestResponseDetails -URL - http://localhost:44762/search/getkeywordsearchsuggestion?expand=Categories&filter=ZnodeCatalogId~eq~7,LocaleId~eq~1,PortalId~eq~1,IsActive~eq~true&sort=&page=index~0,size~ 0&publishState=PRODUCTION
Req-Headers - 
Request Header Details - Key - Content-Type, Value- application/json
Key - Znode-UserId, Value- 2
Key - Znode-DomainName, Value- localhost:3288
Key - Znode-PublishState, Value- PRODUCTION
Key - Znode-Locale, Value- 1
Key - Znode-ProfileId, Value- 
Key - Host, Value- localhost:44762
Key - Content-Length, Value- 943
Key - Expect, Value- 100-continue
Key - Connection, Value- Close
Key - User-Agent, Value- Mozilla/5.0 (Windows NT 10.0; Win64; x64) AppleWebKit/537.36 (KHTML, like Gecko) Chrome/76.0.3809.100 Safari/537.36
Response Status - 0
Error Message - The remote server returned an error: (500) Internal Server Error.

User Referrer: localhost:3288

Browser Name: Chrome

UserId: 

File Path: D:\Jenkins-Znode\workspace\Znode-NuGet-Project-Build\Projects\Engines\Znode.Engine.Api.Client\Clients\Clients\Shared\BaseClient.cs

Method Name: LogRequestResponseDetails

Line Number: 599

Logger: BaseClient.cs



Date - 23 Aug 2019 10:27:10
Level - ERROR
UserAgent - Mozilla/5.0 (Windows NT 10.0; Win64; x64) AppleWebKit/537.36 (KHTML, like Gecko) Chrome/76.0.3809.100 Safari/537.36
Message - 
Method LogRequestResponseDetails -URL - http://localhost:44762/search/getkeywordsearchsuggestion?expand=Categories&filter=ZnodeCatalogId~eq~7,LocaleId~eq~1,PortalId~eq~1,IsActive~eq~true&sort=&page=index~0,size~ 0&publishState=PRODUCTION
Req-Headers - 
Request Header Details - Key - Content-Type, Value- application/json
Key - Znode-UserId, Value- 2
Key - Znode-DomainName, Value- localhost:3288
Key - Znode-PublishState, Value- PRODUCTION
Key - Znode-Locale, Value- 1
Key - Znode-ProfileId, Value- 
Key - Host, Value- localhost:44762
Key - Content-Length, Value- 945
Key - Expect, Value- 100-continue
Key - Connection, Value- Close
Key - User-Agent, Value- Mozilla/5.0 (Windows NT 10.0; Win64; x64) AppleWebKit/537.36 (KHTML, like Gecko) Chrome/76.0.3809.100 Safari/537.36
Response Status - 0
Error Message - The remote server returned an error: (500) Internal Server Error.

User Referrer: localhost:3288

Browser Name: Chrome

UserId: 

File Path: D:\Jenkins-Znode\workspace\Znode-NuGet-Project-Build\Projects\Engines\Znode.Engine.Api.Client\Clients\Clients\Shared\BaseClient.cs

Method Name: LogRequestResponseDetails

Line Number: 599

Logger: BaseClient.cs



Date - 23 Aug 2019 10:27:12
Level - ERROR
UserAgent - Mozilla/5.0 (Windows NT 10.0; Win64; x64) AppleWebKit/537.36 (KHTML, like Gecko) Chrome/76.0.3809.100 Safari/537.36
Message - 
Method LogRequestResponseDetails -URL - http://localhost:44762/search/getkeywordsearchsuggestion?expand=Categories&filter=ZnodeCatalogId~eq~7,LocaleId~eq~1,PortalId~eq~1,IsActive~eq~true&sort=&page=index~0,size~ 0&publishState=PRODUCTION
Req-Headers - 
Request Header Details - Key - Content-Type, Value- application/json
Key - Znode-UserId, Value- 2
Key - Znode-DomainName, Value- localhost:3288
Key - Znode-PublishState, Value- PRODUCTION
Key - Znode-Locale, Value- 1
Key - Znode-ProfileId, Value- 
Key - Host, Value- localhost:44762
Key - Content-Length, Value- 956
Key - Expect, Value- 100-continue
Key - Connection, Value- Close
Key - User-Agent, Value- Mozilla/5.0 (Windows NT 10.0; Win64; x64) AppleWebKit/537.36 (KHTML, like Gecko) Chrome/76.0.3809.100 Safari/537.36
Response Status - 0
Error Message - The remote server returned an error: (500) Internal Server Error.

User Referrer: localhost:3288

Browser Name: Chrome

UserId: 

File Path: D:\Jenkins-Znode\workspace\Znode-NuGet-Project-Build\Projects\Engines\Znode.Engine.Api.Client\Clients\Clients\Shared\BaseClient.cs

Method Name: LogRequestResponseDetails

Line Number: 599

Logger: BaseClient.cs



Date - 23 Aug 2019 10:32:27
Level - ERROR
UserAgent - Mozilla/5.0 (Windows NT 10.0; Win64; x64) AppleWebKit/537.36 (KHTML, like Gecko) Chrome/76.0.3809.100 Safari/537.36
Message - 
Method LogRequestResponseDetails -URL - http://localhost:44762/users/getbyusername
Req-Headers - 
Request Header Details - Key - Content-Type, Value- application/json
Key - Znode-DomainName, Value- localhost:3288
Key - Znode-PublishState, Value- 
Key - Znode-Locale, Value- 
Key - Znode-ProfileId, Value- 
Key - Host, Value- localhost:44762
Key - Content-Length, Value- 1928
Key - Expect, Value- 100-continue
Key - Connection, Value- Close
Key - User-Agent, Value- Mozilla/5.0 (Windows NT 10.0; Win64; x64) AppleWebKit/537.36 (KHTML, like Gecko) Chrome/76.0.3809.100 Safari/537.36
Response Status - 0
Error Message - The remote server returned an error: (500) Internal Server Error.

User Referrer: localhost:3288

Browser Name: Chrome

UserId: 

File Path: D:\Jenkins-Znode\workspace\Znode-NuGet-Project-Build\Projects\Engines\Znode.Engine.Api.Client\Clients\Clients\Shared\BaseClient.cs

Method Name: LogRequestResponseDetails

Line Number: 599

Logger: BaseClient.cs



Date - 23 Aug 2019 12:45:03
Level - ERROR
UserAgent - Mozilla/5.0 (Windows NT 10.0; Win64; x64) AppleWebKit/537.36 (KHTML, like Gecko) Chrome/76.0.3809.100 Safari/537.36
Message - 
Method LogRequestResponseDetails -URL - http://localhost:44762/WebStoreCaseRequest/CreateContactUs
Req-Headers - 
Request Header Details - Key - Content-Type, Value- application/json
Key - Znode-UserId, Value- 2
Key - Znode-DomainName, Value- localhost:3288
Key - Znode-PublishState, Value- PRODUCTION
Key - Znode-Locale, Value- 1
Key - Znode-ProfileId, Value- 
Key - Host, Value- localhost:44762
Key - Content-Length, Value- 852
Key - Expect, Value- 100-continue
Key - Connection, Value- Close
Key - User-Agent, Value- Mozilla/5.0 (Windows NT 10.0; Win64; x64) AppleWebKit/537.36 (KHTML, like Gecko) Chrome/76.0.3809.100 Safari/537.36
Response Status - 0
Error Message - The remote server returned an error: (400) Bad Request.

User Referrer: localhost:3288

Browser Name: Chrome

UserId: 

File Path: D:\Jenkins-Znode\workspace\Znode-NuGet-Project-Build\Projects\Engines\Znode.Engine.Api.Client\Clients\Clients\Shared\BaseClient.cs

Method Name: LogRequestResponseDetails

Line Number: 599

Logger: BaseClient.cs



Date - 23 Aug 2019 12:45:11
Level - ERROR
UserAgent - Mozilla/5.0 (Windows NT 10.0; Win64; x64) AppleWebKit/537.36 (KHTML, like Gecko) Chrome/76.0.3809.100 Safari/537.36
Message - 
Method LogRequestResponseDetails -URL - http://localhost:44762/WebStoreCaseRequest/CreateContactUs
Req-Headers - 
Request Header Details - Key - Content-Type, Value- application/json
Key - Znode-UserId, Value- 2
Key - Znode-DomainName, Value- localhost:3288
Key - Znode-PublishState, Value- PRODUCTION
Key - Znode-Locale, Value- 1
Key - Znode-ProfileId, Value- 
Key - Host, Value- localhost:44762
Key - Content-Length, Value- 852
Key - Expect, Value- 100-continue
Key - Connection, Value- Close
Key - User-Agent, Value- Mozilla/5.0 (Windows NT 10.0; Win64; x64) AppleWebKit/537.36 (KHTML, like Gecko) Chrome/76.0.3809.100 Safari/537.36
Response Status - 0
Error Message - The remote server returned an error: (400) Bad Request.

User Referrer: localhost:3288

Browser Name: Chrome

UserId: 

File Path: D:\Jenkins-Znode\workspace\Znode-NuGet-Project-Build\Projects\Engines\Znode.Engine.Api.Client\Clients\Clients\Shared\BaseClient.cs

Method Name: LogRequestResponseDetails

Line Number: 599

Logger: BaseClient.cs



Date - 23 Aug 2019 14:44:08
Level - ERROR
UserAgent - Mozilla/5.0 (Windows NT 10.0; Win64; x64) AppleWebKit/537.36 (KHTML, like Gecko) Chrome/76.0.3809.100 Safari/537.36
Message - 
Method LogRequestResponseDetails -URL - http://localhost:44762/WebStoreCaseRequest/CreateContactUs
Req-Headers - 
Request Header Details - Key - Content-Type, Value- application/json
Key - Znode-DomainName, Value- localhost:3288
Key - Znode-PublishState, Value- PRODUCTION
Key - Znode-Locale, Value- 1
Key - Znode-ProfileId, Value- 
Key - Host, Value- localhost:44762
Key - Content-Length, Value- 855
Key - Expect, Value- 100-continue
Key - Connection, Value- Close
Key - User-Agent, Value- Mozilla/5.0 (Windows NT 10.0; Win64; x64) AppleWebKit/537.36 (KHTML, like Gecko) Chrome/76.0.3809.100 Safari/537.36
Response Status - 0
Error Message - The remote server returned an error: (400) Bad Request.

User Referrer: localhost:3288

Browser Name: Chrome

UserId: 

File Path: D:\Jenkins-Znode\workspace\Znode-NuGet-Project-Build\Projects\Engines\Znode.Engine.Api.Client\Clients\Clients\Shared\BaseClient.cs

Method Name: LogRequestResponseDetails

Line Number: 599

Logger: BaseClient.cs



Date - 23 Aug 2019 14:47:16
Level - ERROR
UserAgent - Mozilla/5.0 (Windows NT 10.0; Win64; x64) AppleWebKit/537.36 (KHTML, like Gecko) Chrome/76.0.3809.100 Safari/537.36
Message - 
Method LogRequestResponseDetails -URL - http://localhost:44762/WebStoreCaseRequest/CreateContactUs
Req-Headers - 
Request Header Details - Key - Content-Type, Value- application/json
Key - Znode-DomainName, Value- localhost:3288
Key - Znode-PublishState, Value- PRODUCTION
Key - Znode-Locale, Value- 1
Key - Znode-ProfileId, Value- 
Key - Host, Value- localhost:44762
Key - Content-Length, Value- 855
Key - Expect, Value- 100-continue
Key - Connection, Value- Close
Key - User-Agent, Value- Mozilla/5.0 (Windows NT 10.0; Win64; x64) AppleWebKit/537.36 (KHTML, like Gecko) Chrome/76.0.3809.100 Safari/537.36
Response Status - 0
Error Message - The remote server returned an error: (400) Bad Request.

User Referrer: localhost:3288

Browser Name: Chrome

UserId: 

File Path: D:\Jenkins-Znode\workspace\Znode-NuGet-Project-Build\Projects\Engines\Znode.Engine.Api.Client\Clients\Clients\Shared\BaseClient.cs

Method Name: LogRequestResponseDetails

Line Number: 599

Logger: BaseClient.cs



Date - 23 Aug 2019 14:47:28
Level - ERROR
UserAgent - Mozilla/5.0 (Windows NT 10.0; Win64; x64) AppleWebKit/537.36 (KHTML, like Gecko) Chrome/76.0.3809.100 Safari/537.36
Message - 
Method LogRequestResponseDetails -URL - http://localhost:44762/WebStoreCaseRequest/CreateContactUs
Req-Headers - 
Request Header Details - Key - Content-Type, Value- application/json
Key - Znode-DomainName, Value- localhost:3288
Key - Znode-PublishState, Value- PRODUCTION
Key - Znode-Locale, Value- 1
Key - Znode-ProfileId, Value- 
Key - Host, Value- localhost:44762
Key - Content-Length, Value- 855
Key - Expect, Value- 100-continue
Key - Connection, Value- Close
Key - User-Agent, Value- Mozilla/5.0 (Windows NT 10.0; Win64; x64) AppleWebKit/537.36 (KHTML, like Gecko) Chrome/76.0.3809.100 Safari/537.36
Response Status - 0
Error Message - The remote server returned an error: (400) Bad Request.

User Referrer: localhost:3288

Browser Name: Chrome

UserId: 

File Path: D:\Jenkins-Znode\workspace\Znode-NuGet-Project-Build\Projects\Engines\Znode.Engine.Api.Client\Clients\Clients\Shared\BaseClient.cs

Method Name: LogRequestResponseDetails

Line Number: 599

Logger: BaseClient.cs



Date - 23 Aug 2019 14:47:41
Level - ERROR
UserAgent - Mozilla/5.0 (Windows NT 10.0; Win64; x64) AppleWebKit/537.36 (KHTML, like Gecko) Chrome/76.0.3809.100 Safari/537.36
Message - 
Method LogRequestResponseDetails -URL - http://localhost:44762/WebStoreCaseRequest/CreateContactUs
Req-Headers - 
Request Header Details - Key - Content-Type, Value- application/json
Key - Znode-DomainName, Value- localhost:3288
Key - Znode-PublishState, Value- PRODUCTION
Key - Znode-Locale, Value- 1
Key - Znode-ProfileId, Value- 
Key - Host, Value- localhost:44762
Key - Content-Length, Value- 855
Key - Expect, Value- 100-continue
Key - Connection, Value- Close
Key - User-Agent, Value- Mozilla/5.0 (Windows NT 10.0; Win64; x64) AppleWebKit/537.36 (KHTML, like Gecko) Chrome/76.0.3809.100 Safari/537.36
Response Status - 0
Error Message - The remote server returned an error: (400) Bad Request.

User Referrer: localhost:3288

Browser Name: Chrome

UserId: 

File Path: D:\Jenkins-Znode\workspace\Znode-NuGet-Project-Build\Projects\Engines\Znode.Engine.Api.Client\Clients\Clients\Shared\BaseClient.cs

Method Name: LogRequestResponseDetails

Line Number: 599

Logger: BaseClient.cs



Date - 23 Aug 2019 14:47:44
Level - ERROR
UserAgent - Mozilla/5.0 (Windows NT 10.0; Win64; x64) AppleWebKit/537.36 (KHTML, like Gecko) Chrome/76.0.3809.100 Safari/537.36
Message - 
Method LogRequestResponseDetails -URL - http://localhost:44762/WebStoreCaseRequest/CreateContactUs
Req-Headers - 
Request Header Details - Key - Content-Type, Value- application/json
Key - Znode-DomainName, Value- localhost:3288
Key - Znode-PublishState, Value- PRODUCTION
Key - Znode-Locale, Value- 1
Key - Znode-ProfileId, Value- 
Key - Host, Value- localhost:44762
Key - Content-Length, Value- 855
Key - Expect, Value- 100-continue
Key - Connection, Value- Close
Key - User-Agent, Value- Mozilla/5.0 (Windows NT 10.0; Win64; x64) AppleWebKit/537.36 (KHTML, like Gecko) Chrome/76.0.3809.100 Safari/537.36
Response Status - 0
Error Message - The remote server returned an error: (400) Bad Request.

User Referrer: localhost:3288

Browser Name: Chrome

UserId: 

File Path: D:\Jenkins-Znode\workspace\Znode-NuGet-Project-Build\Projects\Engines\Znode.Engine.Api.Client\Clients\Clients\Shared\BaseClient.cs

Method Name: LogRequestResponseDetails

Line Number: 599

Logger: BaseClient.cs



Date - 23 Aug 2019 14:47:53
Level - ERROR
UserAgent - Mozilla/5.0 (Windows NT 10.0; Win64; x64) AppleWebKit/537.36 (KHTML, like Gecko) Chrome/76.0.3809.100 Safari/537.36
Message - 
Method LogRequestResponseDetails -URL - http://localhost:44762/WebStoreCaseRequest/CreateContactUs
Req-Headers - 
Request Header Details - Key - Content-Type, Value- application/json
Key - Znode-DomainName, Value- localhost:3288
Key - Znode-PublishState, Value- PRODUCTION
Key - Znode-Locale, Value- 1
Key - Znode-ProfileId, Value- 
Key - Host, Value- localhost:44762
Key - Content-Length, Value- 855
Key - Expect, Value- 100-continue
Key - Connection, Value- Close
Key - User-Agent, Value- Mozilla/5.0 (Windows NT 10.0; Win64; x64) AppleWebKit/537.36 (KHTML, like Gecko) Chrome/76.0.3809.100 Safari/537.36
Response Status - 0
Error Message - The remote server returned an error: (400) Bad Request.

User Referrer: localhost:3288

Browser Name: Chrome

UserId: 

File Path: D:\Jenkins-Znode\workspace\Znode-NuGet-Project-Build\Projects\Engines\Znode.Engine.Api.Client\Clients\Clients\Shared\BaseClient.cs

Method Name: LogRequestResponseDetails

Line Number: 599

Logger: BaseClient.cs


